37	464
0	303|0.107713	304|0.153508	305|0.184123	306|0.192631	307|0.177077	308|0.141035
1	305|0.137888	306|0.969090
2	303|0.106050	304|0.174800	305|0.448679	306|0.661734	307|0.211300	308|0.119296
3	303|0.115772	304|0.185346	305|0.558560	306|0.633074	307|0.196976	308|0.118918
4	303|0.116631	304|0.194620	305|0.543580	306|0.687761	307|0.210091	308|0.123894
5	303|0.116017	304|0.192991	305|0.516802	306|0.724495	307|0.215101	308|0.122388
6	303|0.114901	304|0.177920	305|0.468449	306|0.779222	307|0.215295	308|0.120440
7	303|0.101865	304|0.165858	305|0.410907	306|0.817857	307|0.210237	308|0.118006
8	304|0.135483	305|0.330534	306|0.864002	307|0.185696	308|0.104938
9	304|0.115710	305|0.267164	306|0.887548	307|0.168837
10	305|0.104768	306|0.967537
11	306|0.987199
12	306|0.990284
13	306|0.981643
14	306|0.980964
15	306|0.990433
16	305|0.149335	306|0.888449	307|0.220881	308|0.101950
17	305|0.169612	306|0.849901	307|0.281557	308|0.121981
18	306|0.963335
19	305|0.169316	306|0.976261	307|0.131683
20	305|0.190445	306|0.939173	307|0.143204
21	306|0.958579
22	305|0.111906	306|0.904973	307|0.136469
23	305|0.156689	306|0.842324	307|0.226537
24	304|0.108667	305|0.174741	306|0.791029	307|0.323376	308|0.137059
25	305|0.142113	306|0.854020	307|0.234660	308|0.114619
26	305|0.185181	306|0.753948	307|0.370211	308|0.144691
27	304|0.110494	305|0.183161	306|0.692659	307|0.428374	308|0.166089	309|0.100733
28	304|0.112802	305|0.206875	306|0.591599	307|0.533604	308|0.179599	309|0.111351
29	304|0.112670	305|0.190617	306|0.675736	307|0.458848	308|0.172927	309|0.108359
30	304|0.118609	305|0.188583	306|0.656457	307|0.463476	308|0.169164	309|0.107338
31	304|0.113606	305|0.192529	306|0.591948	307|0.540525	308|0.187045	309|0.118526
32	304|0.110323	305|0.189201	306|0.635799	307|0.520216	308|0.188886	309|0.114493
33	306|0.151713	307|0.130478
34	304|0.107816	305|0.163137	306|0.639292	307|0.451365	308|0.193935	309|0.102738
35	304|0.103794	305|0.197259	306|0.730946	307|0.460030	308|0.169052	309|0.103062
36	305|0.112350	306|0.276300	308|0.108545
37	305|0.143030	306|0.728612	307|0.399226	308|0.199163
38	304|0.117345	305|0.194718	306|0.579654	307|0.587656	308|0.185118	309|0.112573
39	304|0.100611	305|0.114798	306|0.289385	308|0.111896
40	304|0.104425	305|0.154469	306|0.664712	307|0.452876	308|0.210936	309|0.110905
41	304|0.120167	305|0.202274	306|0.587781	307|0.591989	308|0.187864	309|0.118927
42	304|0.102159	305|0.116869	306|0.305129	308|0.117123
43	305|0.134132	306|0.616121	307|0.501751	308|0.219736	309|0.119189
44	304|0.109614	305|0.183288	306|0.545231	307|0.598846	308|0.199667	309|0.116573
45	304|0.106041	305|0.118610	306|0.330904	308|0.140965	309|0.109288
46	305|0.118139	306|0.484980	307|0.577643	308|0.195393	309|0.105521
47	305|0.161068	306|0.462426	307|0.597866	308|0.185359	309|0.108969
48	305|0.113838	306|0.344384	308|0.164733	309|0.123760
49	305|0.101875	306|0.627807	307|0.512821	308|0.215010	309|0.114314
50	304|0.109358	305|0.180913	306|0.500790	307|0.602610	308|0.202396	309|0.117575
51	305|0.128128	306|0.398349	308|0.184947	309|0.129125
52	305|0.108224	306|0.389754	307|0.634045	308|0.117464
53	306|0.193254	307|0.636842	308|0.122360
54	306|0.298282	308|0.194587	309|0.129272
55	305|0.104437	306|0.393286	307|0.646980	308|0.104779
56	305|0.119224	306|0.302626	307|0.618196	308|0.144207
57	306|0.368979	308|0.199834	309|0.114908
58	306|0.489543	307|0.592000	308|0.123252
59	305|0.141802	306|0.372821	307|0.636516	308|0.168309
60	306|0.430954	307|0.128932	308|0.205638	309|0.101690
61	306|0.474727	307|0.579807	308|0.103548
62	304|0.108938	305|0.176843	306|0.552250	307|0.561977	308|0.191041	309|0.112274
63	305|0.119051	306|0.484350	307|0.209951	308|0.201619
64	306|0.561189	307|0.506145	308|0.119198
65	304|0.106871	305|0.191101	306|0.726758	307|0.429559	308|0.168326	309|0.100679
66	305|0.132835	306|0.497330	307|0.240254	308|0.150070
67	304|0.106610	305|0.140399	306|0.655040	307|0.338805	308|0.149076
68	305|0.160977	306|0.848844	307|0.285407	308|0.120260
69	305|0.128082	306|0.525920	307|0.251996	308|0.125663
70	304|0.124812	305|0.237917	306|0.646155	307|0.245228	308|0.132564
71	306|0.985740
72	305|0.218756	306|0.608786	307|0.248181
73	304|0.121626	305|0.290987	306|0.603022	307|0.193552	308|0.137863
74	304|0.119634	305|0.293968	306|0.941499	307|0.182648	308|0.103284
75	304|0.115999	305|0.289009	306|0.640658	307|0.194783
76	304|0.118968	305|0.267991	306|0.558915	307|0.263159	308|0.106544
77	306|1.000000
78	305|0.167184	306|0.643247	307|0.269122
79	305|0.208900	306|0.533204	307|0.320539
80	305|0.103488	306|0.932591	307|0.131498
81	305|0.131542	306|0.645883	307|0.289496
82	305|0.136947	306|0.488210	307|0.400600
83	304|0.116772	305|0.194888	306|0.718624	307|0.398406	308|0.156145
84	306|0.589989	307|0.336869
85	305|0.204898	306|0.482723	307|0.413990	309|0.123073
86	304|0.112996	305|0.199132	306|0.719714	307|0.421638	308|0.158024
87	306|0.626233	307|0.344915
88	305|0.217614	306|0.442973	307|0.389540	309|0.128328
89	304|0.113794	305|0.200436	306|0.791795	307|0.357961	308|0.154589
90	306|0.649225	307|0.361260
91	305|0.214770	306|0.453044	307|0.304592	308|0.112113
92	305|0.129228	306|0.917535	307|0.177253
93	306|0.958304
94	306|0.948427	307|0.143525
95	304|0.119851	305|0.214902	306|0.730615	307|0.430451	308|0.162661
96	304|0.103722	305|0.187139	306|0.851678	307|0.320439	308|0.135549
97	305|0.148116	306|0.922005	307|0.211599	308|0.100588
98	304|0.114371	305|0.202217	306|0.785630	307|0.394221	308|0.153733
99	304|0.117926	305|0.199201	306|0.664445	307|0.504706	308|0.183818	309|0.113804
100	304|0.108357	305|0.183136	306|0.808985	307|0.371982	308|0.148964
101	304|0.100239	305|0.171082	306|0.862214	307|0.308817	308|0.127682
102	304|0.103248	305|0.178394	306|0.862631	307|0.316611	308|0.133376
103	304|0.103102	305|0.176059	306|0.861962	307|0.327180	308|0.134929
104	304|0.112701	305|0.188097	306|0.849741	307|0.345180	308|0.143124
105	304|0.111642	305|0.197165	306|0.832706	307|0.363333	308|0.153855
106	304|0.118000	305|0.195603	306|0.831041	307|0.368425	308|0.157731
107	304|0.112712	305|0.194064	306|0.851046	307|0.375488	308|0.153736
108	304|0.120760	305|0.214464	306|0.742328	307|0.464019	308|0.177764	309|0.112954
109	304|0.116486	305|0.207023	306|0.745450	307|0.465594	308|0.173392	309|0.109736
110	304|0.112077	305|0.199903	306|0.693028	307|0.473336	308|0.185048	309|0.103440
111	304|0.108931	305|0.186962	306|0.677554	307|0.410050	308|0.157130
112	304|0.105163	305|0.179945	306|0.735791	307|0.378055	308|0.154037
113	304|0.116558	305|0.200416	306|0.703481	307|0.456909	308|0.177740	309|0.107977
114	304|0.117489	305|0.200463	306|0.721614	307|0.470656	308|0.178945	309|0.111153
115	304|0.117083	305|0.207131	306|0.709879	307|0.509552	308|0.185237	309|0.115645
116	304|0.125900	305|0.208472	306|0.703166	307|0.526787	308|0.192327	309|0.114403
