37	464
0	53|0.203783	54|0.173648	55|0.153579	56|0.125328	59|0.113405	61|0.168299	62|0.283048	63|0.140201	64|0.392341	65|0.821255	66|0.771821	67|0.450535	68|0.121390	161|0.113047	162|0.176940	163|0.174652	164|0.135231	165|0.113575	196|0.109581	199|0.100921	271|0.103708	272|0.115482
1	52|0.107580	54|0.356820	55|0.123038	56|0.111366	57|0.117069	60|0.176304	61|0.109347	62|0.171635	63|0.229235	64|0.108749	65|1.000000	66|0.552088	67|0.335918	68|0.149986	161|0.189313	163|0.208688	164|0.141521	165|0.193259	196|0.179152	198|0.177986	272|0.106246
2	52|0.128353	54|0.278726	56|0.117547	57|0.103919	60|0.103300	62|0.251639	63|0.271486	64|0.226720	65|0.606272	66|0.289502	67|0.344131	68|0.144327	161|0.104113	163|0.139563	165|0.167791	272|0.123202
3	54|0.307621	55|0.153778	57|0.110847	62|0.228935	63|0.275105	65|0.694127	66|0.273876	67|0.286871	68|0.122670	163|0.199233	165|0.151854	196|0.119920	198|0.136104	272|0.120095
4	54|0.259460	56|0.137449	59|0.114974	60|0.111235	61|0.133391	62|0.158034	63|0.242731	65|0.728732	66|0.308324	67|0.293010	68|0.151526	161|0.101196	162|0.123630	163|0.142729	164|0.127060	165|0.153436	196|0.133393	272|0.101739
5	52|0.120851	54|0.330836	55|0.184052	60|0.117853	62|0.212697	63|0.220764	64|0.210435	65|0.566985	66|0.272657	67|0.301468	162|0.112166	163|0.188229	165|0.148686	271|0.126507	272|0.145050
6	54|0.273342	55|0.143903	56|0.101505	60|0.123768	62|0.145893	63|0.162166	64|0.103785	65|0.846683	66|0.415478	67|0.236579	68|0.137296	161|0.107637	163|0.128363	164|0.114741	165|0.158602	196|0.123396	198|0.142448
7	52|0.121829	54|0.307645	55|0.141659	56|0.108105	57|0.124347	60|0.102888	62|0.193002	63|0.184559	64|0.224866	65|0.520323	66|0.293498	67|0.314558	68|0.104871	161|0.119403	163|0.170079	165|0.177227	198|0.106539	271|0.100666	272|0.145660
8	52|0.128342	54|0.301329	55|0.155906	60|0.111922	61|0.104906	62|0.141518	63|0.230197	65|0.729281	66|0.340748	67|0.327907	68|0.181630	161|0.143535	163|0.215513	164|0.121043	165|0.201458	198|0.118114
9	52|0.121741	54|0.264639	56|0.100947	62|0.122395	63|0.101372	64|0.293168	65|0.385805	66|0.398322	67|0.242936	161|0.107836	163|0.135212	164|0.126815	165|0.203170
10
11
12
13
14
15
16
17
18	53|0.153678	54|0.142357	55|0.151413	56|0.112526	61|0.168990	62|0.173852	64|0.441711	65|0.813479	66|0.813820	67|0.417939	162|0.124570	163|0.150821	164|0.134970	165|0.112471	196|0.161009	197|0.145389	198|0.101634
19	51|0.100608	52|0.176110	53|0.123658	54|0.375275	56|0.126854	60|0.120625	61|0.153042	62|0.195072	63|0.228458	65|0.886943	66|0.430820	67|0.401938	68|0.217885	70|0.109536	71|0.101033	162|0.125312	163|0.130357	164|0.198641	165|0.208097	196|0.187643	198|0.126282	272|0.106799
20	52|0.124884	54|0.385443	55|0.186827	62|0.205569	63|0.172111	64|0.223046	65|0.589406	66|0.343450	67|0.371922	163|0.222154	164|0.123812	165|0.167026	196|0.107454	271|0.145323	272|0.165381
21	54|0.311056	55|0.155964	56|0.102153	62|0.139424	63|0.136910	65|0.819688	66|0.468427	67|0.260555	68|0.130243	163|0.176377	165|0.117949	196|0.130581	198|0.193589	199|0.106574
22	52|0.161136	54|0.288077	55|0.134632	56|0.107949	57|0.102819	62|0.189244	63|0.150744	64|0.206742	65|0.539414	66|0.291528	67|0.346665	68|0.129266	163|0.199449	165|0.134243	271|0.109200	272|0.122576
23	52|0.128281	54|0.332066	55|0.211045	62|0.139441	63|0.233697	65|0.688291	66|0.359275	67|0.328158	68|0.134729	161|0.106370	163|0.260794	164|0.108265	165|0.173298	196|0.106717	198|0.178865
24	52|0.136117	53|0.111007	54|0.236036	55|0.130742	56|0.108757	62|0.166118	63|0.210785	65|0.667296	66|0.326326	67|0.328871	68|0.169257	163|0.179917	164|0.147866	165|0.150137	196|0.155080	198|0.159885
25	52|0.109706	54|0.353384	55|0.217400	62|0.215323	63|0.223760	64|0.154235	65|0.599489	66|0.310969	67|0.319453	163|0.221966	164|0.108563	165|0.130088	196|0.140913	198|0.174409	271|0.100594	272|0.125613
26	53|0.126011	54|0.254354	55|0.142340	62|0.122815	63|0.141914	65|0.816008	66|0.407237	67|0.253879	68|0.149460	163|0.166097	165|0.123871	196|0.166817	198|0.255225
27	52|0.149589	54|0.322726	55|0.163532	62|0.120780	63|0.100992	64|0.255877	65|0.520293	66|0.317110	67|0.247559	163|0.116791	165|0.136409	197|0.108278	198|0.171940	271|0.101135	272|0.134297
